…
```
## `summarise()` ungrouping output (override with `.groups` argument)
```

```r
WPWI_Route
```

```
## # A tibble: 62 x 2
##    RouteIdentifier Nstops
##    <chr>            <int>
##  1 104                 10
##  2 11                  10
##  3 119                  3
##  4 124                 10
##  5 13                  10
##  6 137                 10
##  7 138                 10
##  8 143                 10
##  9 161                 10
## 10 165                 10
## # ... with 52 more rows
```
…
WPWI_Obs <- WPWI_multi %>% 
  group_by(RouteIdentifier, survey_year) %>% 
  summarise(MeanObs = mean(as.numeric(ObservationCount)))
```

```
## `summarise()` regrouping output by 'RouteIdentifier' (override with `.groups` argument)
```

```r
WPWI_Obs
```

```
## # A tibble: 95 x 3
## # Groups:   RouteIdentifier [62]
##    RouteIdentifier survey_year MeanObs
##    <chr>                 <int>   <dbl>
##  1 104                    2010       0
##  2 104                    2011       0
##  3 11                     2010       0
##  4 11                     2011       0
##  5 119                    2010       0
##  6 119                    2011       0
##  7 119                    2012       0
##  8 124                    2010       0
##  9 124                    2011       0
## 10 13                     2010       0
## # ... with 85 more rows
```
…
